{
  "project_info": {
    "project_number": "611558532528",
    "project_id": "animeplacenavi",
    "storage_bucket": "animeplacenavi.appspot.com"
  },
  "client": [
    {
      "client_info": {
        "mobilesdk_app_id": "1:611558532528:android:47ae3a63337465bb28a275",
        "android_client_info": {
          "package_name": "com.example.animeplacenavi"
        }
      },
      "oauth_client": [
        {
          "client_id": "611558532528-grtca6jp6ui9u6lf6p2pb0kg2eboeagn.apps.googleusercontent.com",
          "client_type": 3
        }
      ],
      "api_key": [
        {
          "current_key": "AIzaSyDGT6NREWgeVDkRgFXQ-bhGO8rkUOH0QKI"
        }
      ],
      "services": {
        "appinvite_service": {
          "other_platform_oauth_client": [
            {
              "client_id": "611558532528-grtca6jp6ui9u6lf6p2pb0kg2eboeagn.apps.googleusercontent.com",
              "client_type": 3
            }
          ]
        }
      }
    }
  ],
  "configuration_version": "1"
}